Resolución sintética del examen: evaluación del sistema PaP de recogida de residuos
…
6.4 3.4. Municipios con orgánica PaP por año

tabla_organica <- df |>
  group_by(year) |>
  summarise(
    municipios_organica_pap = n_distinct(codigo_municipio[pap_organica == 1]),
    .groups = "drop"
  )

tabla_organica

# A tibble: 24 × 2
    year municipios_organica_pap
   <dbl>                   <int>
 1  2000                       0
 2  2001                       0
 3  2002                       0
 4  2003                       0
 5  2004                       5
 6  2005                      25
 7  2006                      46
 8  2007                      66
 9  2008                      87
10  2009                     105
# ℹ 14 more rows
…
tabla_adopciones

# A tibble: 24 × 2
    year n_adoptan
   <dbl>     <int>
 1  2000         0
 2  2001         0
 3  2002         0
 4  2003         0
 5  2004         5
 6  2005        20
 7  2006        21
 8  2007        20
 9  2008        21
10  2009        18
# ℹ 14 more rows
…
tabla_dinamica <- bind_rows(tabla_dyn_residuos, tabla_dyn_selectiva)

tabla_dinamica

# A tibble: 22 × 6
   event_time       att      se   ci_low  ci_high outcome             
        <dbl>     <dbl>   <dbl>    <dbl>    <dbl> <chr>               
 1         -5  0.00232  0.00611 -0.00966  0.0143  Log residuos totales
 2         -4  0.000715 0.00848 -0.0159   0.0173  Log residuos totales
 3         -3  0.00695  0.00660 -0.00600  0.0199  Log residuos totales
 4         -2 -0.00279  0.00843 -0.0193   0.0137  Log residuos totales
 5         -1 -0.00687  0.00808 -0.0227   0.00896 Log residuos totales
 6          0  0.000319 0.00900 -0.0173   0.0180  Log residuos totales
 7          1 -0.0351   0.00757 -0.0500  -0.0203  Log residuos totales
 8          2 -0.0627   0.00819 -0.0787  -0.0466  Log residuos totales
 9          3 -0.103    0.00973 -0.122   -0.0835  Log residuos totales
10          4 -0.136    0.0103  -0.156   -0.116   Log residuos totales
# ℹ 12 more rows
…
tabla_cohortes <- bind_rows(tabla_group_residuos, tabla_group_selectiva)

tabla_cohortes

# A tibble: 34 × 6
   cohort     att     se ci_low ci_high outcome             
    <int>   <dbl>  <dbl>  <dbl>   <dbl> <chr>               
 1   2004 -0.158  0.0483 -0.252 -0.0633 Log residuos totales
 2   2005 -0.157  0.0164 -0.189 -0.124  Log residuos totales
 3   2006 -0.158  0.0206 -0.199 -0.118  Log residuos totales
 4   2007 -0.115  0.0227 -0.159 -0.0703 Log residuos totales
 5   2008 -0.171  0.0230 -0.216 -0.126  Log residuos totales
 6   2009 -0.150  0.0320 -0.212 -0.0872 Log residuos totales
 7   2010 -0.0974 0.0364 -0.169 -0.0261 Log residuos totales
 8   2011 -0.117  0.0184 -0.153 -0.0807 Log residuos totales
 9   2012 -0.133  0.0241 -0.181 -0.0859 Log residuos totales
10   2013 -0.135  0.0231 -0.180 -0.0899 Log residuos totales
# ℹ 24 more rows
…
