Manual práctico de Synthetic Control y Synthetic Control DiD en R
…
13.1 13.1. Pesos de unidades

unit_names <- dataprep_out$tag$unit.names
control_names <- unit_names[unit_names != treated_unit]

weights_synth <- tibble(
  unit = control_names,
  weight = as.numeric(synth_out$solution.w)
) |>
  arrange(desc(weight))

weights_synth |> filter(weight > 0.001)

# A tibble: 31 × 2
    unit  weight
   <int>   <dbl>
 1    17 0.426  
 2    17 0.194  
 3    17 0.176  
 4    17 0.130  
 5    17 0.00709
 6    17 0.00672
 7    17 0.00617
 8    17 0.00393
 9    17 0.00367
10    17 0.00350
# ℹ 21 more rows
…
sc_tidy

# A tibble: 80 × 11
   .id      .placebo .type .outcome .predictors .synthetic_control .unit_weights
   <chr>       <dbl> <chr> <list>   <list>      <list>             <list>       
 1 Region_…        0 trea… <tibble> <tibble>    <tibble [26 × 3]>  <tibble>     
 2 Region_…        0 cont… <tibble> <tibble>    <tibble [26 × 3]>  <tibble>     
 3 Region_…        1 trea… <tibble> <tibble>    <tibble [26 × 3]>  <tibble>     
 4 Region_…        1 cont… <tibble> <tibble>    <tibble [26 × 3]>  <tibble>     
 5 Region_…        1 trea… <tibble> <tibble>    <tibble [26 × 3]>  <tibble>     
 6 Region_…        1 cont… <tibble> <tibble>    <tibble [26 × 3]>  <tibble>     
 7 Region_…        1 trea… <tibble> <tibble>    <tibble [26 × 3]>  <tibble>     
 8 Region_…        1 cont… <tibble> <tibble>    <tibble [26 × 3]>  <tibble>     
 9 Region_…        1 trea… <tibble> <tibble>    <tibble [26 × 3]>  <tibble>     
10 Region_…        1 cont… <tibble> <tibble>    <tibble [26 × 3]>  <tibble>     
# ℹ 70 more rows
# ℹ 4 more variables: .predictor_weights <list>, .original_data <list>,
#   .meta <list>, .loss <list>
…
grab_significance(sc_tidy)

# A tibble: 40 × 8
   unit_name type    pre_mspe post_mspe mspe_ratio  rank fishers_exact_pvalue
   <chr>     <chr>      <dbl>     <dbl>      <dbl> <int>                <dbl>
 1 Region_01 Treated    0.252    26.2       104.       1                0.025
 2 Region_20 Donor      0.415     1.85        4.46     2                0.05 
 3 Region_16 Donor      0.286     1.26        4.41     3                0.075
 4 Region_32 Donor      0.674     2.60        3.86     4                0.1  
 5 Region_22 Donor      0.388     1.06        2.73     5                0.125
 6 Region_30 Donor      0.674     1.75        2.59     6                0.15 
 7 Region_07 Donor      0.447     1.12        2.50     7                0.175
 8 Region_39 Donor      1.11      2.35        2.12     8                0.2  
 9 Region_05 Donor      0.746     1.57        2.10     9                0.225
10 Region_40 Donor      0.469     0.959       2.05    10                0.25 
# ℹ 30 more rows
# ℹ 1 more variable: z_score <dbl>
…
